…
    ## New names:
    ## • `` -> `...15`
    ## • `` -> `...16`

``` r
mr_trash_wheel
```

    ## # A tibble: 584 × 13
    ##    dumpster date                weight volume plastic_bottles polystyrene
    ##       <dbl> <dttm>               <dbl>  <dbl>           <dbl>       <dbl>
    ##  1        1 2014-05-16 00:00:00   4.31     18            1450        1820
    ##  2        2 2014-05-16 00:00:00   2.74     13            1120        1030
    ##  3        3 2014-05-16 00:00:00   3.45     15            2450        3100
    ##  4        4 2014-05-17 00:00:00   3.1      15            2380        2730
    ##  5        5 2014-05-17 00:00:00   4.06     18             980         870
    ##  6        6 2014-05-20 00:00:00   2.71     13            1430        2140
    ##  7        7 2014-05-21 00:00:00   1.91      8             910        1090
    ##  8        8 2014-05-28 00:00:00   3.7      16            3580        4310
    ##  9        9 2014-06-05 00:00:00   2.52     14            2400        2790
    ## 10       10 2014-06-11 00:00:00   3.76     18            1340        1730
    ## # ℹ 574 more rows
    ## # ℹ 7 more variables: cigarette_butts <dbl>, glass_bottles <dbl>,
    ## #   plastic_bags <dbl>, wrappers <dbl>, sports_balls <dbl>,
    ## #   homes_powered <dbl>, trash_wheel <chr>
…
prof_trash_wheel = 
  readxl::read_excel("data/new_trash_data.xlsx", "Professor Trash Wheel") |> 
  janitor::clean_names() |> 
  drop_na(dumpster, plastic_bottles) |> 
  rename(weight = weight_tons) |> 
  rename(volume = volume_cubic_yards) |> 
  select(dumpster, date, weight, volume, plastic_bottles, polystyrene, cigarette_butts, glass_bottles, plastic_bags, wrappers, homes_powered) |> 
  mutate(
    homes_powered = (weight*500) / 30 ,
    trash_wheel = "Prof. Trash"
  )
prof_trash_wheel
```

    ## # A tibble: 105 × 12
    ##    dumpster date                weight volume plastic_bottles polystyrene
    ##       <dbl> <dttm>               <dbl>  <dbl>           <dbl>       <dbl>
    ##  1        1 2017-01-02 00:00:00   1.79     15            1950        6080
    ##  2        2 2017-01-30 00:00:00   1.58     15            9540       11230
    ##  3        3 2017-02-26 00:00:00   2.32     18            8350        9210
    ##  4        4 2017-02-26 00:00:00   3.72     15            8590        1030
    ##  5        5 2017-02-28 00:00:00   1.45     15            7830        9950
    ##  6        6 2017-03-30 00:00:00   1.71     15            8210       10340
    ##  7        7 2017-04-01 00:00:00   1.82     15            9830       11020
    ##  8        8 2017-04-20 00:00:00   2.37     15            9240        8760
    ##  9        9 2017-05-10 00:00:00   2.64     15            9540        8810
    ## 10       10 2017-05-26 00:00:00   2.78     15            8230        7800
    ## # ℹ 95 more rows
    ## # ℹ 6 more variables: cigarette_butts <dbl>, glass_bottles <dbl>,
    ## #   plastic_bags <dbl>, wrappers <dbl>, homes_powered <dbl>, trash_wheel <chr>
…
gwyn_trash_wheel
```

    ## # A tibble: 155 × 10
    ##    dumpster date                weight volume plastic_bottles polystyrene
    ##       <dbl> <dttm>               <dbl>  <dbl>           <dbl>       <dbl>
    ##  1        1 2021-07-03 00:00:00   0.93     15            1200         360
    ##  2        2 2021-07-07 00:00:00   2.26     15            2000         240
    ##  3        3 2021-07-07 00:00:00   1.62     15            1800         270
    ##  4        4 2021-07-16 00:00:00   1.76     15            1000         180
    ##  5        5 2021-07-30 00:00:00   1.53     15            2100         240
    ##  6        6 2021-08-11 00:00:00   2.06     15            2400         360
    ##  7        7 2021-08-14 00:00:00   1.9      15            2700         320
    ##  8        8 2021-08-16 00:00:00   2.16     15            3000         320
    ##  9        9 2021-08-16 00:00:00   2.6      15             980         180
    ## 10       10 2021-08-17 00:00:00   3.21     15             240          42
    ## # ℹ 145 more rows
    ## # ℹ 4 more variables: cigarette_butts <dbl>, plastic_bags <dbl>,
    ## #   homes_powered <dbl>, trash_wheel <chr>
…
### combine 3 datasets

``` r
trash_data = 
  bind_rows(mr_trash_wheel, prof_trash_wheel, gwyn_trash_wheel) |> 
  select(dumpster, date, weight, volume, plastic_bottles, polystyrene, cigarette_butts, plastic_bags, homes_powered, trash_wheel)
trash_data
```

    ## # A tibble: 844 × 10
    ##    dumpster date                weight volume plastic_bottles polystyrene
    ##       <dbl> <dttm>               <dbl>  <dbl>           <dbl>       <dbl>
    ##  1        1 2014-05-16 00:00:00   4.31     18            1450        1820
    ##  2        2 2014-05-16 00:00:00   2.74     13            1120        1030
    ##  3        3 2014-05-16 00:00:00   3.45     15            2450        3100
    ##  4        4 2014-05-17 00:00:00   3.1      15            2380        2730
    ##  5        5 2014-05-17 00:00:00   4.06     18             980         870
    ##  6        6 2014-05-20 00:00:00   2.71     13            1430        2140
    ##  7        7 2014-05-21 00:00:00   1.91      8             910        1090
    ##  8        8 2014-05-28 00:00:00   3.7      16            3580        4310
    ##  9        9 2014-06-05 00:00:00   2.52     14            2400        2790
    ## 10       10 2014-06-11 00:00:00   3.76     18            1340        1730
    ## # ℹ 834 more rows
    ## # ℹ 4 more variables: cigarette_butts <dbl>, plastic_bags <dbl>,
    ## #   homes_powered <dbl>, trash_wheel <chr>
…
``` r
time_2_clean = amy_data[!(amy_data$time_2=="Na"),]
time_4_clean = time_2_clean[!(time_2_clean$time_4=="Na"),]
time_6_clean = time_4_clean[!(time_4_clean$time_6=="Na"),]
time_8_clean = time_6_clean[!(time_6_clean$time_8=="Na"),]
amyloid_data = time_8_clean[!(time_8_clean$baseline=="Na"),]
 

baseline_data
```

    ## # A tibble: 97 × 6
    ##    ID    current_age sex    education apoe4       age_at_onset
    ##    <chr> <chr>       <chr>  <chr>     <chr>              <dbl>
    ##  1 3     62.5        female 16        carrier             66.8
    ##  2 5     66          female 16        non-carrier         68.7
    ##  3 7     66.5        female 18        non-carrier         74  
    ##  4 13    63.1        female 12        carrier             69  
    ##  5 14    58.4        male   20        non-carrier         66.2
    ##  6 18    67.8        female 16        non-carrier         69.8
    ##  7 22    67.3        male   20        carrier             74.6
    ##  8 26    64.8        male   20        carrier             71.1
    ##  9 30    66.3        male   12        non-carrier         73.1
    ## 10 39    68.3        male   16        carrier             70.2
    ## # ℹ 87 more rows

``` r
amyloid_data
```

    ## # A tibble: 340 × 6
    ##    ID    baseline    time_2      time_4      time_6      time_8     
    ##    <chr> <chr>       <chr>       <chr>       <chr>       <chr>      
    ##  1 2     0.107481183 0.109157373 0.109457839 0.105729713 0.10661845 
    ##  2 4     0.109251358 0.108699686 0.110540386 0.107476797 0.111212209
    ##  3 5     0.107950408 0.112273883 0.115139677 0.106606054 0.106052066
    ##  4 6     0.112426974 0.112853415 0.11143945  0.110279277 0.114982747
    ##  5 11    0.109119335 0.109316496 0.1114037   0.108586573 0.108993335
    ##  6 12    0.112042298 0.114167481 0.109859682 0.106842794 0.107334106
    ##  7 13    0.110300505 0.108534417 0.108100808 0.109229662 0.104861901
    ##  8 16    0.110218888 0.113741328 0.111101474 0.108852437 0.109556166
    ##  9 17    0.108399246 0.113317542 0.105909034 0.107196914 0.110199133
    ## 10 18    0.114137255 0.107093264 0.110872562 0.108982605 0.106873903
    ## # ℹ 330 more rows
…
